0.00 Reducing table.
0.00 Equivalent columns for reduced table in original table starting from 1
1 2 3 4 5 6 7 8 9 10 11 12 13 14 15 16 17 18 19 20 21 22 23 24 25 26 27 28 29 30 31 32 33 34 35 36 37 38 39 40 41 42 43 44 45 46 47 48 49 50 51 52 53 54 55 56 57 58 59 60 61 62 63 64 65 66 67 68 69 70 71 72 73 74 75 76 77 78 79 80 81 82 83 84 
 Equivalent columns in original table starting from 1, blank means null set 
0.02 Creating row comparison table.
0.03 Creating column comparison table.
0.03 Creating up and down arrows.
0.07 std::vector<Implication> FindDBasis 
0.07 Table::getFullBinaryBasis 
0.07 Table::getFullBinaryBasis done.
0.07 Table::getDFullNonBinaryBasis FindDBasis 
0.07 Calling shd.
